{"3" : {
	"number" : 3,
	"needed" : 2,
	"powerable" : 1,
	"resources" : ["oil"]},
 "4" : {
	"number" : 4,
	"needed" : 2,
	"powerable" : 1,
	"resources" : ["coal"]},
 "5" : {
	"number" : 5,
	"needed" : 2,
	"powerable" : 1,
	"resources" : ["coal", "oil"]},
 "6" : {
	"number" : 6,
	"needed" : 1,
	"powerable" : 1,
	"resources" : ["garbage"]},
 "7" : {
	"number" : 7,
	"needed" : 3,
	"powerable" : 2,
	"resources" : ["oil"]},
 "8" : {
	"number" : 8,
	"needed" : 3,
	"powerable" : 2,
	"resources" : ["coal"]},
 "9" : {
	"number" : 9,
	"needed" : 1,
	"powerable" : 1,
	"resources" : ["oil"]},
 "10" : {
	"number" : 10,
	"needed" : 2,
	"powerable" : 2,
	"resources" : ["coal"]},
 "11" : {
	"number" : 11,
	"needed" : 1,
	"powerable" : 2,
	"resources" : ["uranium"]},
 "12" : {
	"number" : 12,
	"needed" : 2,
	"powerable" : 2,
	"resources" : ["coal", "oil"]},
 "13" : {
	"number" : 13,
	"needed" : 0,
	"powerable" : 1,
	"resources" : []},
 "14" : {
	"number" : 14,
	"needed" : 2,
	"powerable" : 2,
	"resources" : ["garbage"]},
 "15" : {
	"number" : 15,
	"needed" : 2,
	"powerable" : 3,
	"resources" : ["coal"]},
 "16" : {
	"number" : 16,
	"needed" : 2,
	"powerable" : 3,
	"resources" : ["oil"]},
 "17" : {
	"number" : 17,
	"needed" : 1,
	"powerable" : 2,
	"resources" : ["uranium"]},
 "18" : {
	"number" : 18,
	"needed" : 0,
	"powerable" : 2,
	"resources" : []},
 "19" : {
	"number" : 18,
	"needed" : 2,
	"powerable" : 3,
	"resources" : ["garbage"]},
 "20" : {
	"number" : 20,
	"needed" : 3,
	"powerable" : 5,
	"resources" : ["coal"]},
 "21" : {
	"number" : 21,
	"needed" : 2,
	"powerable" : 4,
	"resources" : ["coal", "oil"]},
 "22" : {
	"number" : 22,
	"needed" : 0,
	"powerable" : 2,
	"resources" : []},
 "23" : {
	"number" : 23,
	"needed" : 1,
	"powerable" : 3,
	"resources" : ["uranium"]},
 "24" : {
	"number" : 24,
	"needed" : 2,
	"powerable" : 4,
	"resources" : ["garbage"]},
 "25" : {
	"number" : 25,
	"needed" : 2,
	"powerable" : 5,
	"resources" : ["coal"]},
 "26" : {
	"number" : 26,
	"needed" : 2,
	"powerable" : 5,
	"resources" : ["oil"]},
 "27" : {
	"number" : 27,
	"needed" : 0,
	"powerable" : 3,
	"resources" : []},
 "28" : {
	"number" : 28,
	"needed" : 1,
	"powerable" : 4,
	"resources" : ["uranium"]},
 "29" : {
	"number" : 29,
	"needed" : 1,
	"powerable" : 4,
	"resources" : ["coal", "oil"]},
 "30" : {
	"number" : 30,
	"needed" : 3,
	"powerable" : 6,
	"resources" : ["garbage"]},
 "31" : {
	"number" : 31,
	"needed" : 3,
	"powerable" : 6,
	"resources" : ["coal"]},
 "32" : {
	"number" : 32,
	"needed" : 3,
	"powerable" : 6,
	"resources" : ["oil"]},
 "33" : {
	"number" : 33,
	"needed" : 0,
	"powerable" : 4,
	"resources" : []},
 "34" : {
	"number" : 34,
	"needed" : 1,
	"powerable" : 5,
	"resources" : ["uranium"]},
 "35" : {
	"number" : 35,
	"needed" : 1,
	"powerable" : 5,
	"resources" : ["oil"]},
 "36" : {
	"number" : 36,
	"needed" : 3,
	"powerable" : 7,
	"resources" : ["coal"]},
 "37" : {
	"number" : 37,
	"needed" : 0,
	"powerable" : 4,
	"resources" : []},
 "38" : {
	"number" : 38,
	"needed" : 3,
	"powerable" : 7,
	"resources" : ["garbage"]},
 "39" : {
	"number" : 39,
	"needed" : 1,
	"powerable" : 6,
	"resources" : ["uranium"]},
 "40" : {
	"number" : 40,
	"needed" : 2,
	"powerable" : 6,
	"resources" : ["oil"]},
 "42" : {
	"number" : 42,
	"needed" : 2,
	"powerable" : 6,
	"resources" : ["coal"]},
 "44" : {
	"number" : 44,
	"needed" : 0,
	"powerable" : 5,
	"resources" : []},
 "46" : {
	"number" : 46,
	"needed" : 3,
	"powerable" : 7,
	"resources" : ["coal", "oil"]},
 "50" : {
	"number" : 50,
	"needed" : 0,
	"powerable" : 6,
	"resources" : []}
}
